(spaceship) Thomass-MBP:kikundi tom$ python3.5 kikundi run-pipeline
[2019-01-30 13:15:52,197] INFO [kikundi.utils.package_banner:36]
[2019-01-30 13:15:52,197] INFO [kikundi.utils.package_banner:36]
[2019-01-30 13:15:52,197] INFO [kikundi.utils.package_banner:36]
[2019-01-30 13:15:52,197] INFO [kikundi.utils.package_banner:36]           _  ___ _                    _ _
[2019-01-30 13:15:52,197] INFO [kikundi.utils.package_banner:36]          | |/ (_) | ___   _ _ __   __| (_)
[2019-01-30 13:15:52,197] INFO [kikundi.utils.package_banner:36]          | ' /| | |/ / | | | '_ \ / _` | |
[2019-01-30 13:15:52,197] INFO [kikundi.utils.package_banner:36]          | . \| |   <| |_| | | | | (_| | |
[2019-01-30 13:15:52,197] INFO [kikundi.utils.package_banner:36]          |_|\_\_|_|\_\__,_|_| |_|\__,_|_|
[2019-01-30 13:15:52,197] INFO [kikundi.utils.package_banner:36]
[2019-01-30 13:15:52,197] INFO [kikundi.utils.package_banner:36]
[2019-01-30 13:15:52,197] INFO [kikundi.utils.package_banner:36]
[2019-01-30 13:15:52,197] INFO [kikundi.utils.package_banner:36]
[2019-01-30 13:15:52,197] INFO [__main__.run_pipeline:46] Commencing run...
Traceback (most recent call last):
  File "/Users/tom/.pyenv/versions/3.5.1/lib/python3.5/runpy.py", line 170, in _run_module_as_main
    "__main__", mod_spec)
  File "/Users/tom/.pyenv/versions/3.5.1/lib/python3.5/runpy.py", line 85, in _run_code
    exec(code, run_globals)
  File "kikundi/__main__.py", line 113, in <module>
    cli()
  File "/Users/tom/.pyenv/versions/3.5.1/lib/python3.5/site-packages/click/core.py", line 764, in __call__
    return self.main(*args, **kwargs)
  File "/Users/tom/.pyenv/versions/3.5.1/lib/python3.5/site-packages/click/core.py", line 717, in main
    rv = self.invoke(ctx)
  File "/Users/tom/.pyenv/versions/3.5.1/lib/python3.5/site-packages/click/core.py", line 1137, in invoke
    return _process_result(sub_ctx.command.invoke(sub_ctx))
  File "/Users/tom/.pyenv/versions/3.5.1/lib/python3.5/site-packages/click/core.py", line 956, in invoke
    return ctx.invoke(self.callback, **ctx.params)
  File "/Users/tom/.pyenv/versions/3.5.1/lib/python3.5/site-packages/click/core.py", line 555, in invoke
    return callback(*args, **kwargs)
  File "kikundi/__main__.py", line 37, in cmd_run_pipeline
    run_pipeline(config_filenames=config_filenames, report_on_test=report_on_test)
  File "kikundi/__main__.py", line 47, in run_pipeline
    conf_contents = kikundi.utils.load_configuration(config_filenames)
  File "/Users/tom/code/upf/smc/Audio_and_Music_Processing_Lab/Mapping_Genre_Taxonomies/kikundi/kikundi/utils.py", line 50, in load_configuration
    raise ConfigError("No config files!")
kikundi.utils.ConfigError: No config files!